cma-week4-solution
…
sabi <- sabi |>
    rowwise() |>
    mutate(
        stepMean = mean(c(nMinus2, nMinus1, nPlus1, nPlus2))
    ) |>
    ungroup()

sabi

Simple feature collection with 192 features and 11 fields
Geometry type: POINT
Dimension:     XY
Bounding box:  xmin: 2569724 ymin: 1204916 xmax: 2570927 ymax: 1205957
Projected CRS: CH1903+ / LV95
# A tibble: 192 × 12
   TierID TierName CollarID DatetimeUTC                E        N
   <chr>  <chr>       <dbl> <dttm>                 <dbl>    <dbl>
 1 002A   Sabi        12275 2015-06-30 22:00:13 2569972. 1205366.
 2 002A   Sabi        12275 2015-06-30 22:16:06 2569975. 1205637.
 3 002A   Sabi        12275 2015-06-30 22:30:19 2570266. 1205857.
 4 002A   Sabi        12275 2015-06-30 22:45:13 2570208. 1205913.
 5 002A   Sabi        12275 2015-06-30 23:00:10 2570247. 1205731.
 6 002A   Sabi        12275 2015-06-30 23:15:17 2570512. 1205279.
 7 002A   Sabi        12275 2015-06-30 23:30:38 2570684. 1205103.
 8 002A   Sabi        12275 2015-06-30 23:45:16 2570526. 1205051.
 9 002A   Sabi        12275 2015-07-01 00:00:10 2570532. 1205044.
10 002A   Sabi        12275 2015-07-01 00:15:14 2570530. 1205059.
# ℹ 182 more rows
# ℹ 6 more variables: geometry <POINT [m]>, nMinus2 <dbl>, nMinus1 <dbl>,
#   nPlus1 <dbl>, nPlus2 <dbl>, stepMean <dbl>
…
Rows: 25549 Columns: 7
── Column specification ────────────────────────────────────────────────────────
Delimiter: ","
chr  (4): user_id, weekday, place_name, transport_mode
dbl  (2): lon_x, lat_y
dttm (1): datetime

ℹ Use `spec()` to retrieve the full column specification for this data.
ℹ Specify the column types or set `show_col_types = FALSE` to quiet this message.

# show as a tibble
posmo |> as_tibble()

# A tibble: 25,549 × 7
   user_id     datetime            weekday place_name transport_mode lon_x lat_y
   <chr>       <dttm>              <chr>   <chr>      <chr>          <dbl> <dbl>
 1 0f84c8f2-2… 2024-03-23 10:35:10 Sat     Careum Bi… <NA>            8.55  47.4
 2 0f84c8f2-2… 2024-03-23 11:55:38 Sat     <NA>       Walk            8.55  47.4
 3 0f84c8f2-2… 2024-03-23 11:55:38 Sat     <NA>       Walk            8.55  47.4
 4 0f84c8f2-2… 2024-03-23 11:55:49 Sat     <NA>       Walk            8.55  47.4
 5 0f84c8f2-2… 2024-03-23 11:56:00 Sat     <NA>       Walk            8.55  47.4
 6 0f84c8f2-2… 2024-03-23 11:56:11 Sat     <NA>       Walk            8.55  47.4
 7 0f84c8f2-2… 2024-03-23 11:56:22 Sat     <NA>       Walk            8.55  47.4
 8 0f84c8f2-2… 2024-03-23 11:56:33 Sat     <NA>       Walk            8.55  47.4
 9 0f84c8f2-2… 2024-03-23 11:56:44 Sat     <NA>       Walk            8.55  47.4
10 0f84c8f2-2… 2024-03-23 11:56:55 Sat     <NA>       Walk            8.55  47.4
# ℹ 25,539 more rows
…
Simple feature collection with 25549 features and 9 fields
Geometry type: POINT
Dimension:     XY
Bounding box:  xmin: 8.504926 ymin: 47.21715 xmax: 8.685076 ymax: 47.40922
Geodetic CRS:  WGS 84
# A tibble: 25,549 × 10
   user_id                 datetime            weekday place_name transport_mode
 * <chr>                   <dttm>              <chr>   <chr>      <chr>         
 1 0f84c8f2-20e1-4f1e-b94… 2024-03-23 10:35:10 Sat     Careum Bi… <NA>          
 2 0f84c8f2-20e1-4f1e-b94… 2024-03-23 11:55:38 Sat     <NA>       Walk          
 3 0f84c8f2-20e1-4f1e-b94… 2024-03-23 11:55:38 Sat     <NA>       Walk          
 4 0f84c8f2-20e1-4f1e-b94… 2024-03-23 11:55:49 Sat     <NA>       Walk          
 5 0f84c8f2-20e1-4f1e-b94… 2024-03-23 11:56:00 Sat     <NA>       Walk          
 6 0f84c8f2-20e1-4f1e-b94… 2024-03-23 11:56:11 Sat     <NA>       Walk          
 7 0f84c8f2-20e1-4f1e-b94… 2024-03-23 11:56:22 Sat     <NA>       Walk          
 8 0f84c8f2-20e1-4f1e-b94… 2024-03-23 11:56:33 Sat     <NA>       Walk          
 9 0f84c8f2-20e1-4f1e-b94… 2024-03-23 11:56:44 Sat     <NA>       Walk          
10 0f84c8f2-20e1-4f1e-b94… 2024-03-23 11:56:55 Sat     <NA>       Walk          
# ℹ 25,539 more rows
# ℹ 5 more variables: geometry <POINT [°]>, nMinus2 <dbl>, nMinus1 <dbl>,
#   nPlus1 <dbl>, nPlus2 <dbl>
